E:\CODE WORKSTATION\JAVA WORKSPACE\Inzynierka\PlayBookPanel\src\main\java\szaman\playbook\entity\archive\ArchiveAuditorium.java
E:\CODE WORKSTATION\JAVA WORKSPACE\Inzynierka\PlayBookPanel\src\main\java\szaman\playbook\view\menu\account\AccountDatabaseController.java
E:\CODE WORKSTATION\JAVA WORKSPACE\Inzynierka\PlayBookPanel\src\main\java\szaman\playbook\view\menu\account\ResetUserPasswordController.java
E:\CODE WORKSTATION\JAVA WORKSPACE\Inzynierka\PlayBookPanel\src\main\java\szaman\playbook\view\menu\account\SelfChangePasswordController.java
E:\CODE WORKSTATION\JAVA WORKSPACE\Inzynierka\PlayBookPanel\src\main\java\szaman\playbook\view\menu\archive\account\ArchiveAccountDatabaseController.java
E:\CODE WORKSTATION\JAVA WORKSPACE\Inzynierka\PlayBookPanel\src\main\java\szaman\playbook\view\menu\theatre\DeleteTheatreController.java
E:\CODE WORKSTATION\JAVA WORKSPACE\Inzynierka\PlayBookPanel\src\main\java\szaman\playbook\utility\Utility.java
E:\CODE WORKSTATION\JAVA WORKSPACE\Inzynierka\PlayBookPanel\src\main\java\szaman\playbook\entity\Reservation.java
E:\CODE WORKSTATION\JAVA WORKSPACE\Inzynierka\PlayBookPanel\src\main\java\szaman\playbook\view\menu\play\DeletePlayController.java
E:\CODE WORKSTATION\JAVA WORKSPACE\Inzynierka\PlayBookPanel\src\main\java\szaman\playbook\view\menu\show\ShowDatabaseController.java
E:\CODE WORKSTATION\JAVA WORKSPACE\Inzynierka\PlayBookPanel\src\main\java\szaman\playbook\utility\HibernateConnector.java
E:\CODE WORKSTATION\JAVA WORKSPACE\Inzynierka\PlayBookPanel\src\main\java\szaman\playbook\view\LoginController.java
E:\CODE WORKSTATION\JAVA WORKSPACE\Inzynierka\PlayBookPanel\src\main\java\szaman\playbook\view\menu\play\EditPlayController.java
E:\CODE WORKSTATION\JAVA WORKSPACE\Inzynierka\PlayBookPanel\src\main\java\szaman\playbook\view\menu\account\EditAccountController.java
E:\CODE WORKSTATION\JAVA WORKSPACE\Inzynierka\PlayBookPanel\src\main\java\szaman\playbook\view\menu\archive\theatre\ArchiveTheatreDatabaseController.java
E:\CODE WORKSTATION\JAVA WORKSPACE\Inzynierka\PlayBookPanel\src\main\java\szaman\playbook\view\menu\theatre\auditorium\DeleteAuditoriumController.java
E:\CODE WORKSTATION\JAVA WORKSPACE\Inzynierka\PlayBookPanel\src\main\java\szaman\playbook\view\menu\archive\ArchiveMenuController.java
E:\CODE WORKSTATION\JAVA WORKSPACE\Inzynierka\PlayBookPanel\src\main\java\szaman\playbook\view\menu\show\AddShowController.java
E:\CODE WORKSTATION\JAVA WORKSPACE\Inzynierka\PlayBookPanel\src\main\java\szaman\playbook\view\menu\theatre\auditorium\AuditoriumChooserController.java
E:\CODE WORKSTATION\JAVA WORKSPACE\Inzynierka\PlayBookPanel\src\main\java\szaman\playbook\entity\archive\ArchiveTheatre.java
E:\CODE WORKSTATION\JAVA WORKSPACE\Inzynierka\PlayBookPanel\src\main\java\szaman\playbook\entity\Play.java
E:\CODE WORKSTATION\JAVA WORKSPACE\Inzynierka\PlayBookPanel\src\main\java\szaman\playbook\entity\archive\ArchiveReservation.java
E:\CODE WORKSTATION\JAVA WORKSPACE\Inzynierka\PlayBookPanel\src\main\java\szaman\playbook\entity\archive\ArchiveShow.java
E:\CODE WORKSTATION\JAVA WORKSPACE\Inzynierka\PlayBookPanel\src\main\java\szaman\playbook\view\menu\theatre\auditorium\EditSmallAuditoriumController.java
E:\CODE WORKSTATION\JAVA WORKSPACE\Inzynierka\PlayBookPanel\src\main\java\szaman\playbook\utility\HibernateUtility.java
E:\CODE WORKSTATION\JAVA WORKSPACE\Inzynierka\PlayBookPanel\src\main\java\szaman\playbook\view\menu\theatre\auditorium\ShowBigAuditoriumController.java
E:\CODE WORKSTATION\JAVA WORKSPACE\Inzynierka\PlayBookPanel\src\main\java\szaman\playbook\view\menu\show\reservation\AddReservationForMediumAuditoriumController.java
E:\CODE WORKSTATION\JAVA WORKSPACE\Inzynierka\PlayBookPanel\src\main\java\szaman\playbook\view\menu\show\reservation\EditReservationForMediumAuditoriumController.java
E:\CODE WORKSTATION\JAVA WORKSPACE\Inzynierka\PlayBookPanel\src\main\java\szaman\playbook\view\menu\show\reservation\ReservationDatabaseController.java
E:\CODE WORKSTATION\JAVA WORKSPACE\Inzynierka\PlayBookPanel\src\main\java\szaman\playbook\view\menu\play\AddPlayController.java
E:\CODE WORKSTATION\JAVA WORKSPACE\Inzynierka\PlayBookPanel\src\main\java\szaman\playbook\view\menu\archive\auditorium\ShowBigArchiveAuditoriumController.java
E:\CODE WORKSTATION\JAVA WORKSPACE\Inzynierka\PlayBookPanel\src\main\java\szaman\playbook\view\menu\theatre\auditorium\ShowSmallAuditoriumController.java
E:\CODE WORKSTATION\JAVA WORKSPACE\Inzynierka\PlayBookPanel\src\main\java\szaman\playbook\view\MainWindowController.java
E:\CODE WORKSTATION\JAVA WORKSPACE\Inzynierka\PlayBookPanel\src\main\java\szaman\playbook\view\menu\theatre\auditorium\AddSmallAuditoriumController.java
E:\CODE WORKSTATION\JAVA WORKSPACE\Inzynierka\PlayBookPanel\src\main\java\szaman\playbook\view\menu\theatre\auditorium\AuditoriumDatabaseController.java
E:\CODE WORKSTATION\JAVA WORKSPACE\Inzynierka\PlayBookPanel\src\main\java\szaman\playbook\view\menu\archive\auditorium\ShowSmallArchiveAuditoriumController.java
E:\CODE WORKSTATION\JAVA WORKSPACE\Inzynierka\PlayBookPanel\src\main\java\szaman\playbook\view\menu\theatre\EditTheatreController.java
E:\CODE WORKSTATION\JAVA WORKSPACE\Inzynierka\PlayBookPanel\src\main\java\szaman\playbook\view\menu\theatre\TheatreDatabaseController.java
E:\CODE WORKSTATION\JAVA WORKSPACE\Inzynierka\PlayBookPanel\src\main\java\szaman\playbook\view\menu\show\reservation\EditReservationForBigAuditoriumController.java
E:\CODE WORKSTATION\JAVA WORKSPACE\Inzynierka\PlayBookPanel\src\main\java\szaman\playbook\view\menu\show\reservation\EditReservationForSmallAuditoriumController.java
E:\CODE WORKSTATION\JAVA WORKSPACE\Inzynierka\PlayBookPanel\src\main\java\szaman\playbook\view\menu\archive\auditorium\ArchiveAuditoriumDatabaseController.java
E:\CODE WORKSTATION\JAVA WORKSPACE\Inzynierka\PlayBookPanel\src\main\java\szaman\playbook\view\menu\theatre\AddTheatreController.java
E:\CODE WORKSTATION\JAVA WORKSPACE\Inzynierka\PlayBookPanel\src\main\java\szaman\playbook\view\menu\MenuController.java
E:\CODE WORKSTATION\JAVA WORKSPACE\Inzynierka\PlayBookPanel\src\main\java\szaman\playbook\Core.java
E:\CODE WORKSTATION\JAVA WORKSPACE\Inzynierka\PlayBookPanel\src\main\java\szaman\playbook\view\menu\show\DeleteShowController.java
E:\CODE WORKSTATION\JAVA WORKSPACE\Inzynierka\PlayBookPanel\src\main\java\szaman\playbook\entity\Auditorium.java
E:\CODE WORKSTATION\JAVA WORKSPACE\Inzynierka\PlayBookPanel\src\main\java\szaman\playbook\view\menu\theatre\auditorium\ShowMediumAuditoriumController.java
E:\CODE WORKSTATION\JAVA WORKSPACE\Inzynierka\PlayBookPanel\src\main\java\szaman\playbook\entity\archive\ArchivePlay.java
E:\CODE WORKSTATION\JAVA WORKSPACE\Inzynierka\PlayBookPanel\src\main\java\szaman\playbook\view\menu\archive\play\ArchivePlayDatabaseController.java
E:\CODE WORKSTATION\JAVA WORKSPACE\Inzynierka\PlayBookPanel\src\main\java\szaman\playbook\entity\archive\ArchiveAccount.java
E:\CODE WORKSTATION\JAVA WORKSPACE\Inzynierka\PlayBookPanel\src\main\java\szaman\playbook\view\menu\show\reservation\DeleteReservationController.java
E:\CODE WORKSTATION\JAVA WORKSPACE\Inzynierka\PlayBookPanel\src\main\java\szaman\playbook\view\menu\theatre\auditorium\EditBigAuditoriumController.java
E:\CODE WORKSTATION\JAVA WORKSPACE\Inzynierka\PlayBookPanel\src\main\java\szaman\playbook\view\menu\show\reservation\ShowReservationsInBigAuditoriumController.java
E:\CODE WORKSTATION\JAVA WORKSPACE\Inzynierka\PlayBookPanel\src\main\java\szaman\playbook\view\menu\show\reservation\ShowReservationsInSmallAuditoriumController.java
E:\CODE WORKSTATION\JAVA WORKSPACE\Inzynierka\PlayBookPanel\src\main\java\szaman\playbook\entity\Show.java
E:\CODE WORKSTATION\JAVA WORKSPACE\Inzynierka\PlayBookPanel\src\main\java\szaman\playbook\view\menu\theatre\auditorium\AddMediumAuditoriumController.java
E:\CODE WORKSTATION\JAVA WORKSPACE\Inzynierka\PlayBookPanel\src\main\java\szaman\playbook\view\menu\show\EditShowController.java
E:\CODE WORKSTATION\JAVA WORKSPACE\Inzynierka\PlayBookPanel\src\main\java\szaman\playbook\view\menu\show\reservation\ShowReservationsInMediumAuditoriumController.java
E:\CODE WORKSTATION\JAVA WORKSPACE\Inzynierka\PlayBookPanel\src\main\java\szaman\playbook\view\menu\theatre\auditorium\AddBigAuditoriumController.java
E:\CODE WORKSTATION\JAVA WORKSPACE\Inzynierka\PlayBookPanel\src\main\java\szaman\playbook\view\menu\archive\reservation\ArchiveReservationDatabaseController.java
E:\CODE WORKSTATION\JAVA WORKSPACE\Inzynierka\PlayBookPanel\src\main\java\szaman\playbook\view\menu\account\DeleteAccountController.java
E:\CODE WORKSTATION\JAVA WORKSPACE\Inzynierka\PlayBookPanel\src\main\java\szaman\playbook\view\WelcomeController.java
E:\CODE WORKSTATION\JAVA WORKSPACE\Inzynierka\PlayBookPanel\src\main\java\szaman\playbook\view\menu\account\AddAccountController.java
E:\CODE WORKSTATION\JAVA WORKSPACE\Inzynierka\PlayBookPanel\src\main\java\szaman\playbook\view\menu\archive\auditorium\ShowMediumArchiveAuditoriumController.java
E:\CODE WORKSTATION\JAVA WORKSPACE\Inzynierka\PlayBookPanel\src\main\java\szaman\playbook\view\menu\show\reservation\AddReservationForBigAuditoriumController.java
E:\CODE WORKSTATION\JAVA WORKSPACE\Inzynierka\PlayBookPanel\src\main\java\szaman\playbook\view\menu\archive\show\ArchiveShowDatabaseController.java
E:\CODE WORKSTATION\JAVA WORKSPACE\Inzynierka\PlayBookPanel\src\main\java\szaman\playbook\entity\Account.java
E:\CODE WORKSTATION\JAVA WORKSPACE\Inzynierka\PlayBookPanel\src\main\java\szaman\playbook\entity\Theatre.java
E:\CODE WORKSTATION\JAVA WORKSPACE\Inzynierka\PlayBookPanel\src\main\java\szaman\playbook\view\menu\show\reservation\AddReservationForSmallAuditoriumController.java
E:\CODE WORKSTATION\JAVA WORKSPACE\Inzynierka\PlayBookPanel\src\main\java\szaman\playbook\view\menu\account\AdminSelfDeleteAccountController.java
E:\CODE WORKSTATION\JAVA WORKSPACE\Inzynierka\PlayBookPanel\src\main\java\szaman\playbook\view\menu\play\PlayDatabaseController.java
E:\CODE WORKSTATION\JAVA WORKSPACE\Inzynierka\PlayBookPanel\src\main\java\szaman\playbook\view\menu\show\reservation\ConfirmReservationController.java
E:\CODE WORKSTATION\JAVA WORKSPACE\Inzynierka\PlayBookPanel\src\main\java\szaman\playbook\view\menu\theatre\auditorium\EditMediumAuditoriumController.java
E:\CODE WORKSTATION\JAVA WORKSPACE\Inzynierka\PlayBookPanel\src\main\java\szaman\playbook\view\menu\show\reservation\ConfirmEditReservationController.java
